c ---- [ banner ] ------------------------------------------------------------
c
c Kissat SAT Solver
c 
c Copyright (c) 2021-2022 Armin Biere University of Freiburg
c Copyright (c) 2019-2021 Armin Biere Johannes Kepler University Linz
c 
c Version 3.0.0 unknown
c gcc (Ubuntu 9.4.0-1ubuntu1~20.04.1) 9.4.0 -W -Wall -O3 -DNDEBUG
c Tue Apr 4 12:18:48 EDT 2023 Linux Epsilon009 5.10.16.3-microsoft-standard-WSL2 x86_64
c
c ---- [ parsing ] -----------------------------------------------------------
c
c opened and reading DIMACS file:
c
c   random-instance/363.cnf
c
c parsed 'p cnf 20 91' header
c closing input after reading 1211 bytes (1 KB)
c finished parsing after 0.00 seconds
c
c ---- [ solving ] -----------------------------------------------------------
c
c  seconds switched rate      trail variables
c         MB reductions conflicts glue  remaining
c          level restarts redundant irredundant
c
c *  0.00  1 0 0 0  0 0   0   0 0% 0 83 20 95%
c {  0.00  1 0 0 0  0 0   0   0 0% 0 83 20 95%
c i  0.00  1 3 0 0  1 1  10   3 79% 1 83 17 81%
c i  0.00  1 2 0 0  1 1  13   5 71% 1 83 14 67%
c i  0.00  1 2 0 0  1 1  14   5 67% 1 83  2 10%
c }  0.00  1 2 0 0  1 1  14   5 67% 1 83  2 10%
c 1  0.00  1 2 0 0  1 1  14   5 67% 1 83  2 10%
c
c ---- [ result ] ------------------------------------------------------------
c
s SATISFIABLE
v -1 2 3 -4 -5 -6 7 8 9 -10 -11 -12 -13 14 15 16 -17 -18 19 20 0
c
c ---- [ profiling ] ---------------------------------------------------------
c
c           0.00   33.33 %  parse
c           0.00   24.85 %  search
c           0.00   17.54 %  focused
c           0.00    0.00 %  simplify
c =============================================
c           0.00  100.00 %  total
c
c ---- [ statistics ] --------------------------------------------------------
c
c conflicts:                               14             6862.75 per second
c decisions:                               16                1.14 per conflict
c propagations:                           102            50000    per second
c restarts:                                 1               14.00 interval
c
c ---- [ resources ] ---------------------------------------------------------
c
c maximum-resident-set-size:          1765376 bytes          2 MB
c process-time:                                              0.00 seconds
c
c ---- [ shutting down ] -----------------------------------------------------
c
c exit 10
