c ---- [ banner ] ------------------------------------------------------------
c
c Kissat SAT Solver
c 
c Copyright (c) 2021-2022 Armin Biere University of Freiburg
c Copyright (c) 2019-2021 Armin Biere Johannes Kepler University Linz
c 
c Version 3.0.0 unknown
c gcc (Ubuntu 9.4.0-1ubuntu1~20.04.1) 9.4.0 -W -Wall -O3 -DNDEBUG
c Tue Apr 4 12:18:48 EDT 2023 Linux Epsilon009 5.10.16.3-microsoft-standard-WSL2 x86_64
c
c ---- [ parsing ] -----------------------------------------------------------
c
c opened and reading DIMACS file:
c
c   random-instance/475.cnf
c
c parsed 'p cnf 20 91' header
c closing input after reading 1184 bytes (1 KB)
c finished parsing after 0.00 seconds
c
c ---- [ solving ] -----------------------------------------------------------
c
c  seconds switched rate      trail variables
c         MB reductions conflicts glue  remaining
c          level restarts redundant irredundant
c
c *  0.00  1 0 0 0  0 0   0   0 0% 0 87 20 95%
c {  0.00  1 0 0 0  0 0   0   0 0% 0 87 20 95%
c i  0.00  1 1 0 0  0 1   1   0 85% 0 87 19 90%
c i  0.00  1 2 0 0  1 1   8   4 61% 1 87 18 86%
c i  0.00  1 2 0 0  1 1  12   5 63% 1 87 17 81%
c }  0.00  1 2 0 0  1 1  14   5 64% 1 87  6 29%
c 0  0.00  1 2 0 0  1 1  14   5 64% 1 87  6 29%
c
c ---- [ result ] ------------------------------------------------------------
c
s UNSATISFIABLE
c
c ---- [ profiling ] ---------------------------------------------------------
c
c           0.00   35.68 %  parse
c           0.00   27.62 %  search
c           0.00   23.67 %  focused
c           0.00    0.00 %  simplify
c =============================================
c           0.00  100.00 %  total
c
c ---- [ statistics ] --------------------------------------------------------
c
c conflicts:                               14             3411.31 per second
c decisions:                               13                0.93 per conflict
c propagations:                            92            22417    per second
c restarts:                                 1               14.00 interval
c
c ---- [ resources ] ---------------------------------------------------------
c
c maximum-resident-set-size:          1765376 bytes          2 MB
c process-time:                                              0.00 seconds
c
c ---- [ shutting down ] -----------------------------------------------------
c
c exit 20
